{
  "$schema": "http://json-schema.org/draft-04/schema#",
  "description": "A representation of an HTTP GET transaction",
  "type": "object",
  "properties": {
    "MetaData": {
      "type": "object",
      "properties": {
        "processor": {
          "type": "string",
          "description": "asserted"
        },
        "source": {
          "type": "string",
          "description": "asserted"
        },
        "type": {
          "type": "string",
          "description": "asserted"
        },
        "timestamp": {
          "type": "string",
          "description": "asserted"
        }
      }
    },
    "Request": {
      "type": "object",
      "properties": {
        "Message-Header": {
          "type": "object",
          "properties": {
            "Authorization": {
              "type": "string",
              "description": "asserted"
            },
            "Accept": {
              "type": "string",
              "description": "asserted"
            },
            "Host": {
              "type": "string",
              "description": "asserted"
            },
            "User-Agent": {
              "type": "string",
              "description": "asserted"
            }
          },
          "required": [
            "Authorization",
            "Accept",
            "Host",
            "User-Agent"
          ]
        },
        "Method": {
          "type": "string",
          "description": "asserted",
          "enum": [
            "GET"
          ]
        },
        "Request-URI": {
          "type": "string",
          "description": "inferred"
        },
        "HTTP-Version": {
          "type": "string",
          "description": "asserted"
        }
      },
      "required": [
        "Message-Header",
        "Method",
        "Request-URI",
        "HTTP-Version"
      ],
      "additionalProperties": false
    },
    "Response": {
      "type": "object",
      "properties": {
        "Message-Body": {
          "type": "string"
        },
        "Message-Header": {
          "type": "object",
          "properties": {
            "Date": {
              "type": "string",
              "description": "asserted"
            },
            "Server": {
              "type": "string",
              "description": "asserted"
            },
            "Content-Length": {
              "type": "integer",
              "description": "inferred"
            },
            "Content-Type": {
              "type": "string",
              "description": "asserted"
            },
            "X-GitHub-Request-Id": {
              "type": "string",
              "description": "asserted"
            },
            "Vary": {
              "type": "string",
              "description": "asserted"
            },
            "ETag": {
              "type": "string",
              "description": "asserted"
            },
            "Last-Modified": {
              "type": "string",
              "description": "inferred"
            },
            "Access-Control-Allow-Origin": {
              "type": "string",
              "description": "asserted"
            },
            "X-GitHub-Media-Type": {
              "type": "string",
              "description": "asserted"
            },
            "Cache-Control": {
              "type": "string",
              "description": "asserted"
            },
            "X-OAuth-Scopes": {
              "type": "string",
              "description": "asserted"
            },
            "X-Accepted-OAuth-Scopes": {
              "type": "string",
              "description": "asserted"
            },
            "Access-Control-Expose-Headers": {
              "type": "string",
              "description": "asserted"
            }
          },
          "required": [
            "Date",
            "Server",
            "Content-Length",
            "Content-Type",
            "X-GitHub-Request-Id",
            "Vary",
            "ETag",
            "Last-Modified",
            "X-Accepted-OAuth-Scopes",
            "X-OAuth-Scopes",
            "Access-Control-Allow-Origin",
            "X-GitHub-Media-Type",
            "Cache-Control",
            "Access-Control-Expose-Headers"
          ]
        },
        "Reason-Phrase": {
          "type": "string",
          "description": "asserted"
        },
        "Status-Code": {
          "type": "integer",
          "description": "asserted"
        },
        "HTTP-Version": {
          "type": "string",
          "description": "asserted"
        }
      },
      "required": [
        "Message-Body",
        "Message-Header",
        "Reason-Phrase",
        "Status-Code",
        "HTTP-Version"
      ],
      "additionalProperties": false
    }
  },
  "required": [
    "Meta-Data",
    "Request",
    "Response"
  ]
}